Modulos/procesador_tb.vcd
$date
	Fri Nov 15 20:55:51 2024
$end
$version
	Icarus Verilog
$end
$timescale
	1ps
$end
$scope module rv32i_tb $end
$var wire 32 ! instruccion_tb [31:0] $end
$var reg 1 " clk_tb $end
$var reg 1 # reset_tb $end
$scope module procesador $end
$var wire 1 " clk_RV $end
$var wire 32 $ instruccion [31:0] $end
$var wire 1 # reset $end
$var wire 1 % zero_RV $end
$var wire 3 & type_RV [2:0] $end
$var wire 2 ' resSrc_RV [1:0] $end
$var wire 1 ( regWrite_RV $end
$var wire 1 ) psSrc_RV $end
$var wire 1 * memWrite_RV $end
$var wire 32 + inst_RV [31:0] $end
$var wire 2 , inmSrc_RV [1:0] $end
$var wire 1 - aluSrc_RV $end
$var wire 3 . aluControl_RV [2:0] $end
$scope module caminoDatos $end
$var wire 1 " clk_DP $end
$var wire 32 / inst_OUT [31:0] $end
$var wire 1 # reset_DP $end
$var wire 1 % zero_OUT $end
$var wire 1 0 zero_DP $end
$var wire 32 1 wd3_mem_DP [31:0] $end
$var wire 32 2 wd3_DP [31:0] $end
$var wire 3 3 type_DP [2:0] $end
$var wire 32 4 salMux_DT [31:0] $end
$var wire 2 5 rscSrc_DP [1:0] $end
$var wire 32 6 res_ALU_DP [31:0] $end
$var wire 1 ( regWrite_DP $end
$var wire 32 7 rd2_DP [31:0] $end
$var wire 32 8 rd1_DP [31:0] $end
$var wire 32 9 pc_mas_cuatro [31:0] $end
$var wire 1 ) pcSrc_DP $end
$var wire 32 : pcOut_DT [31:0] $end
$var wire 32 ; op2_ALU_DP [31:0] $end
$var wire 1 * memWrite_DP $end
$var wire 32 < inst_DP [31:0] $end
$var wire 32 = inm_DP [31:0] $end
$var wire 2 > inmSrc_DP [1:0] $end
$var wire 32 ? direccion_pc [31:0] $end
$var wire 1 - aluSrc_DP $end
$var wire 3 @ aluControl_DP [2:0] $end
$var wire 5 A address_DP_alu [4:0] $end
$var wire 5 B address_DP [4:0] $end
$var wire 5 C a3_DP [4:0] $end
$var wire 5 D a2_DP [4:0] $end
$var wire 5 E a1_DP [4:0] $end
$scope module alu $end
$var wire 32 F srcB [31:0] $end
$var wire 32 G srcA [31:0] $end
$var wire 3 H ALUControl [2:0] $end
$var reg 32 I res [31:0] $end
$var reg 1 0 zero $end
$upscope $end
$scope module bancoRegistros $end
$var wire 1 " clk $end
$var wire 32 J rd1 [31:0] $end
$var wire 32 K rd2 [31:0] $end
$var wire 1 # reset_BR $end
$var wire 1 ( we $end
$var wire 32 L wd3 [31:0] $end
$var wire 5 M a3 [4:0] $end
$var wire 5 N a2 [4:0] $end
$var wire 5 O a1 [4:0] $end
$var integer 32 P i [31:0] $end
$upscope $end
$scope module extensionSigno $end
$var wire 32 Q inst [31:0] $end
$var wire 3 R type_SE [2:0] $end
$var reg 32 S inmExt [31:0] $end
$upscope $end
$scope module memoriaDatos $end
$var wire 5 T address [4:0] $end
$var wire 1 " clk $end
$var wire 32 U rd [31:0] $end
$var wire 1 # reset $end
$var wire 32 V wd [31:0] $end
$var wire 1 * we $end
$var integer 32 W i [31:0] $end
$upscope $end
$scope module memoriaInstruciones $end
$var wire 5 X address [4:0] $end
$var reg 32 Y inst [31:0] $end
$upscope $end
$scope module multiplexorALU $end
$var wire 32 Z e1 [31:0] $end
$var wire 32 [ e2 [31:0] $end
$var wire 1 - sel $end
$var wire 32 \ salMux [31:0] $end
$upscope $end
$scope module multiplexorBranch $end
$var wire 32 ] e1 [31:0] $end
$var wire 32 ^ e2 [31:0] $end
$var wire 1 ) sel $end
$var wire 32 _ salMux [31:0] $end
$upscope $end
$scope module multiplexorWD3 $end
$var wire 32 ` e1 [31:0] $end
$var wire 32 a e2 [31:0] $end
$var wire 32 b pcNext [31:0] $end
$var wire 2 c sel [1:0] $end
$var reg 32 d salMux [31:0] $end
$upscope $end
$scope module preparadorDatos $end
$var wire 32 e inst [31:0] $end
$var wire 3 f type_PD [2:0] $end
$var reg 5 g a1 [4:0] $end
$var reg 5 h a2 [4:0] $end
$var reg 5 i a3 [4:0] $end
$upscope $end
$scope module programCounter $end
$var wire 1 " clk $end
$var wire 1 # reset_PC $end
$var wire 32 j pcNext [31:0] $end
$var reg 32 k pc [31:0] $end
$upscope $end
$scope module sumador $end
$var wire 32 l PC [31:0] $end
$var wire 32 m op [31:0] $end
$var wire 32 n res [31:0] $end
$upscope $end
$upscope $end
$scope module unidadDeControl $end
$var wire 1 - aluSrc_UC $end
$var wire 2 o inmSrc_UC [1:0] $end
$var wire 32 p instr_UC [31:0] $end
$var wire 1 * memWrite_UC $end
$var wire 1 ) pcSrc_UC $end
$var wire 1 ( regWrite_UC $end
$var wire 3 q type_UC [2:0] $end
$var wire 1 % zero_UC $end
$var wire 3 r type_UC_aux [2:0] $end
$var wire 1 s resSrc_UC_aux $end
$var wire 2 t resSrc_UC [1:0] $end
$var wire 1 u regWrite_UC_aux $end
$var wire 1 v pcSrc_UC_aux $end
$var wire 1 w memWrite_UC_aux $end
$var wire 2 x inmSrc_UC_aux [1:0] $end
$var wire 7 y cod_op [6:0] $end
$var wire 1 z aluSrc_UC_aux $end
$var wire 2 { aluOp_UC_aux [1:0] $end
$var wire 3 | aluControl_UC [2:0] $end
$scope module decodificadorAlu $end
$var wire 3 } f3 [2:0] $end
$var wire 1 ~ f7 $end
$var wire 1 !" op $end
$var wire 2 "" aluOp [1:0] $end
$var wire 1 #" OP_F7 $end
$var reg 3 $" aluControl [2:0] $end
$upscope $end
$scope module decodificadorInstruccion $end
$var wire 7 %" op [6:0] $end
$var wire 1 % zero $end
$var reg 2 &" aluOp [1:0] $end
$var reg 1 z aluSrc $end
$var reg 1 '" branch $end
$var reg 2 (" inmSrc [1:0] $end
$var reg 1 )" jump $end
$var reg 1 w memWrite $end
$var reg 1 v pcSrc $end
$var reg 1 u regWrite $end
$var reg 1 s resSrc $end
$var reg 3 *" type_MD [2:0] $end
$upscope $end
$upscope $end
$upscope $end
$upscope $end
$enddefinitions $end
$comment Show the parameter values. $end
$dumpall
$end
#0
$dumpvars
b0 *"
0)"
b0 ("
0'"
b10 &"
b10011 %"
b0 $"
0#"
b10 ""
0!"
0~
b0 }
b0 |
b10 {
1z
b10011 y
b0 x
0w
0v
1u
b0 t
0s
b0 r
b0 q
b1100000000010000010011 p
b0 o
b100 n
b100 m
b0 l
b0 k
b100 j
b1000 i
bx h
b0 g
b0 f
b1100000000010000010011 e
b11 d
b0 c
b100 b
b0 a
b11 `
b100 _
b11 ^
b100 ]
b11 \
b11 [
bx Z
b1100000000010000010011 Y
b0 X
b100000 W
bx V
b0 U
b0 T
b11 S
b0 R
b1100000000010000010011 Q
b100000 P
b0 O
bx N
b1000 M
b11 L
bx K
b0 J
b11 I
b0 H
b0 G
b11 F
b0 E
bx D
b1000 C
b0 B
b0 A
b0 @
b100 ?
b0 >
b11 =
b1100000000010000010011 <
b11 ;
b0 :
b100 9
b0 8
bx 7
b11 6
b0 5
b100 4
b0 3
b11 2
b0 1
00
b1100000000010000010011 /
b0 .
1-
b0 ,
b1100000000010000010011 +
0*
0)
1(
b0 '
b0 &
0%
b1100000000010000010011 $
1#
0"
b1100000000010000010011 !
$end
#1000
b1 2
b1 L
b1 d
b1 6
b1 I
b1 `
b1 ;
b1 F
b1 \
b1 =
b1 S
b1 [
b1 ^
b1001 C
b1001 M
b1001 i
b100000000010010010011 !
b100000000010010010011 $
b100000000010010010011 +
b100000000010010010011 /
b100000000010010010011 Q
b100000000010010010011 e
b100000000010010010011 p
b100000000010010010011 <
b100000000010010010011 Y
b1 B
b1 X
b1000 ?
b1000 j
b1000 n
b1000 9
b1000 b
b100 :
b100 k
b100 l
0#
1"
#2000
0"
#3000
b10000 2
b10000 L
b10000 d
b100 A
b100 T
b10000 6
b10000 I
b10000 `
b10000 ;
b10000 F
b10000 \
b10010 C
b10010 M
b10010 i
b10000 =
b10000 S
b10000 [
b10000 ^
b1000000000000100100010011 !
b1000000000000100100010011 $
b1000000000000100100010011 +
b1000000000000100100010011 /
b1000000000000100100010011 Q
b1000000000000100100010011 e
b1000000000000100100010011 p
b1000000000000100100010011 <
b1000000000000100100010011 Y
b10 B
b10 X
b1100 ?
b1100 j
b1100 n
b1100 9
b1100 b
b1000 :
b1000 k
b1000 l
1"
#4000
0"
#5000
b0 1
b0 U
b0 a
b0 A
b0 T
b11 2
b11 L
b11 d
b1 7
b1 K
b1 V
b1 Z
b1001 D
b1001 N
b1001 h
b1 ;
b1 F
b1 \
b11 6
b11 I
b11 `
b10 &
b10 3
b10 R
b10 f
b10 q
b10 r
b10 *"
0-
0z
bx ,
bx >
bx o
bx x
bx ("
b11 .
b11 @
b11 H
b11 |
b11 $"
b0 =
b0 S
b0 [
b0 ^
b101 C
b101 M
b101 i
b11 8
b11 G
b11 J
b1000 E
b1000 O
b1000 g
b110011 y
b110011 %"
1!"
b110 }
b100101000110001010110011 !
b100101000110001010110011 $
b100101000110001010110011 +
b100101000110001010110011 /
b100101000110001010110011 Q
b100101000110001010110011 e
b100101000110001010110011 p
b100101000110001010110011 <
b100101000110001010110011 Y
b11 B
b11 X
b10000 ?
b10000 j
b10000 n
b10000 9
b10000 b
b1100 :
b1100 k
b1100 l
1"
#6000
0"
#7000
b1 2
b1 L
b1 d
b1 6
b1 I
b1 `
b10 .
b10 @
b10 H
b10 |
b10 $"
b110 C
b110 M
b110 i
b111 }
b100101000111001100110011 !
b100101000111001100110011 $
b100101000111001100110011 +
b100101000111001100110011 /
b100101000111001100110011 Q
b100101000111001100110011 e
b100101000111001100110011 p
b100101000111001100110011 <
b100101000111001100110011 Y
b100 B
b100 X
b10100 ?
b10100 j
b10100 n
b10100 9
b10100 b
b10000 :
b10000 k
b10000 l
1"
#8000
0"
#9000
b100 2
b100 L
b100 d
b1 A
b1 T
b100 6
b100 I
b100 `
b0 .
b0 @
b0 H
b0 |
b0 $"
b111 C
b111 M
b111 i
b0 }
b100101000000001110110011 !
b100101000000001110110011 $
b100101000000001110110011 +
b100101000000001110110011 /
b100101000000001110110011 Q
b100101000000001110110011 e
b100101000000001110110011 p
b100101000000001110110011 <
b100101000000001110110011 Y
b101 B
b101 X
b11000 ?
b11000 j
b11000 n
b11000 9
b11000 b
b10100 :
b10100 k
b10100 l
1"
#10000
0"
#11000
b11100 C
b11100 M
b11100 i
b1000000100101000000111000110011 !
b1000000100101000000111000110011 $
b1000000100101000000111000110011 +
b1000000100101000000111000110011 /
b1000000100101000000111000110011 Q
b1000000100101000000111000110011 e
b1000000100101000000111000110011 p
b1000000100101000000111000110011 <
b1000000100101000000111000110011 Y
b110 B
b110 X
b11100 ?
b11100 j
b11100 n
b11100 9
b11100 b
b11000 :
b11000 k
b11000 l
1"
#12000
0"
#13000
b100 2
b100 L
b100 d
b1 A
b1 T
b11 ;
b11 F
b11 \
b100 6
b100 I
b100 `
b11101 C
b11101 M
b11101 i
b11 7
b11 K
b11 V
b11 Z
b1000 D
b1000 N
b1000 h
b1 8
b1 G
b1 J
b1001 E
b1001 O
b1001 g
b1000000100001001000111010110011 !
b1000000100001001000111010110011 $
b1000000100001001000111010110011 +
b1000000100001001000111010110011 /
b1000000100001001000111010110011 Q
b1000000100001001000111010110011 e
b1000000100001001000111010110011 p
b1000000100001001000111010110011 <
b1000000100001001000111010110011 Y
b111 B
b111 X
b100000 ?
b100000 j
b100000 n
b100000 9
b100000 b
b11100 :
b11100 k
b11100 l
1"
#14000
0"
#15000
b0 2
b0 L
b0 d
b0 A
b0 T
b1 ;
b1 F
b1 \
1%
10
b0 6
b0 I
b0 `
b101 .
b101 @
b101 H
b101 |
b101 $"
b11110 C
b11110 M
b11110 i
b1 7
b1 K
b1 V
b1 Z
b1001 D
b1001 N
b1001 h
b11 8
b11 G
b11 J
b1000 E
b1000 O
b1000 g
b10 }
b100101000010111100110011 !
b100101000010111100110011 $
b100101000010111100110011 +
b100101000010111100110011 /
b100101000010111100110011 Q
b100101000010111100110011 e
b100101000010111100110011 p
b100101000010111100110011 <
b100101000010111100110011 Y
b1000 B
b1000 X
b100100 ?
b100100 j
b100100 n
b100100 9
b100100 b
b100000 :
b100000 k
b100000 l
1"
#16000
0"
#17000
b1 2
b1 L
b1 d
0%
00
b1 6
b1 I
b1 `
b11 ;
b11 F
b11 \
b11111 C
b11111 M
b11111 i
b11 7
b11 K
b11 V
b11 Z
b1000 D
b1000 N
b1000 h
b1 8
b1 G
b1 J
b1001 E
b1001 O
b1001 g
b100001001010111110110011 !
b100001001010111110110011 $
b100001001010111110110011 +
b100001001010111110110011 /
b100001001010111110110011 Q
b100001001010111110110011 e
b100001001010111110110011 p
b100001001010111110110011 <
b100001001010111110110011 Y
b1001 B
b1001 X
b101000 ?
b101000 j
b101000 n
b101000 9
b101000 b
b100100 :
b100100 k
b100100 l
1"
#18000
0"
#19000
b100 ;
b100 F
b100 \
b100 7
b100 K
b100 V
b100 Z
b11101 D
b11101 N
b11101 h
b1110101001010111110110011 !
b1110101001010111110110011 $
b1110101001010111110110011 +
b1110101001010111110110011 /
b1110101001010111110110011 Q
b1110101001010111110110011 e
b1110101001010111110110011 p
b1110101001010111110110011 <
b1110101001010111110110011 Y
b1010 B
b1010 X
b101100 ?
b101100 j
b101100 n
b101100 9
b101100 b
b101000 :
b101000 k
b101000 l
1"
#20000
0"
#21000
0%
00
b1 2
b1 L
b1 d
b0 A
b0 T
b1 =
b1 S
b1 [
b1 ^
b1 ;
b1 F
b1 \
b1 6
b1 I
b1 `
b0 &
b0 3
b0 R
b0 f
b0 q
b0 r
b0 *"
1-
1z
b0 ,
b0 >
b0 o
b0 x
b0 ("
b0 .
b0 @
b0 H
b0 |
b0 $"
b101 C
b101 M
b101 i
bx 7
bx K
bx V
bx Z
bx D
bx N
bx h
b0 8
b0 G
b0 J
b0 E
b0 O
b0 g
b10011 y
b10011 %"
0!"
b0 }
b100000000001010010011 !
b100000000001010010011 $
b100000000001010010011 +
b100000000001010010011 /
b100000000001010010011 Q
b100000000001010010011 e
b100000000001010010011 p
b100000000001010010011 <
b100000000001010010011 Y
b1011 B
b1011 X
b110000 ?
b110000 j
b110000 n
b110000 9
b110000 b
b101100 :
b101100 k
b101100 l
1"
#22000
0"
#23000
b0 2
b0 L
b0 d
1%
10
b0 6
b0 I
b0 `
b0 ;
b0 F
b0 \
b110 C
b110 M
b110 i
b0 =
b0 S
b0 [
b0 ^
b1100010011 !
b1100010011 $
b1100010011 +
b1100010011 /
b1100010011 Q
b1100010011 e
b1100010011 p
b1100010011 <
b1100010011 Y
b1100 B
b1100 X
b110100 ?
b110100 j
b110100 n
b110100 9
b110100 b
b110000 :
b110000 k
b110000 l
1"
#24000
0"
#25000
b0 1
b0 U
b0 a
b11100 A
b11100 T
b100 4
b100 _
b100 m
b10000 7
b10000 K
b10000 V
b10000 Z
b10010 D
b10010 N
b10010 h
b1 .
b1 @
b1 H
b1 |
b1 $"
b10000 ;
b10000 F
b10000 \
0%
00
b11111111111111111111111111110001 6
b11111111111111111111111111110001 I
b11111111111111111111111111110001 `
0)
0v
b11 &
b11 3
b11 R
b11 f
b11 q
b11 r
b11 *"
b1 {
b1 ""
b1 &"
1'"
b0x '
b0x 5
b0x c
b0x t
xs
0-
0z
b10 ,
b10 >
b10 o
b10 x
b10 ("
0(
0u
b10000 =
b10000 S
b10000 [
b10000 ^
bx C
bx M
bx i
b1 8
b1 G
b1 J
b101 E
b101 O
b101 g
b1100011 y
b1100011 %"
1!"
b1001000101000100001100011 !
b1001000101000100001100011 $
b1001000101000100001100011 +
b1001000101000100001100011 /
b1001000101000100001100011 Q
b1001000101000100001100011 e
b1001000101000100001100011 p
b1001000101000100001100011 <
b1001000101000100001100011 Y
b1101 B
b1101 X
b111000 ?
b111000 j
b111000 n
b111000 9
b111000 b
b110100 :
b110100 k
b110100 l
1"
#26000
0"
#27000
b0 A
b0 T
b10 6
b10 I
b10 `
b101 C
b101 M
b101 i
b0 .
b0 @
b0 H
b0 |
b0 $"
b10 2
b10 L
b10 d
b1 ;
b1 F
b1 \
b10 &
b10 3
b10 R
b10 f
b10 q
b10 r
b10 *"
b10 {
b10 ""
b10 &"
0'"
b0 '
b0 5
b0 c
b0 t
0s
bx ,
bx >
bx o
bx x
bx ("
1(
1u
b0 =
b0 S
b0 [
b0 ^
b1 7
b1 K
b1 V
b1 Z
b101 D
b101 N
b101 h
b110011 y
b110011 %"
b10100101000001010110011 !
b10100101000001010110011 $
b10100101000001010110011 +
b10100101000001010110011 /
b10100101000001010110011 Q
b10100101000001010110011 e
b10100101000001010110011 p
b10100101000001010110011 <
b10100101000001010110011 Y
b1110 B
b1110 X
b111100 ?
b111100 j
b111100 n
b111100 9
b111100 b
b111000 :
b111000 k
b111000 l
1"
#28000
0"
#29000
0%
00
b1 =
b1 S
b1 [
b1 ^
b0 &
b0 3
b0 R
b0 f
b0 q
b0 r
b0 *"
1-
1z
b0 ,
b0 >
b0 o
b0 x
b0 ("
b110 C
b110 M
b110 i
bx D
bx N
bx h
b110 E
b110 O
b110 g
b10011 y
b10011 %"
0!"
b1 2
b1 L
b1 d
b0 A
b0 T
b100110000001100010011 !
b100110000001100010011 $
b100110000001100010011 +
b100110000001100010011 /
b100110000001100010011 Q
b100110000001100010011 e
b100110000001100010011 p
b100110000001100010011 <
b100110000001100010011 Y
b1 6
b1 I
b1 `
b1 ;
b1 F
b1 \
b1111 B
b1111 X
b0 8
b0 G
b0 J
bx 7
bx K
bx V
bx Z
b1000000 ?
b1000000 j
b1000000 n
b1000000 9
b1000000 b
b111100 :
b111100 k
b111100 l
1"
#30000
0"
#31000
bx 1
bx U
bx a
bx A
bx T
b11111111111111111111111111110100 4
b11111111111111111111111111110100 _
b11111111111111111111111111110100 m
bx ;
bx F
bx \
1)
1v
1)"
b100 &
b100 3
b100 R
b100 f
b100 q
b100 r
b100 *"
b0 {
b0 ""
b0 &"
b1 '
b1 5
b1 c
b1 t
1s
0-
0z
b10 ,
b10 >
b10 o
b10 x
b10 ("
1#"
b0 .
b0 @
b0 H
b0 |
b0 $"
b11111111111111111111111111110100 =
b11111111111111111111111111110100 S
b11111111111111111111111111110100 [
b11111111111111111111111111110100 ^
b0 C
b0 M
b0 i
bx E
bx O
bx g
b1101111 y
b1101111 %"
1!"
1~
b111 }
b11111111010111111111000001101111 !
b11111111010111111111000001101111 $
b11111111010111111111000001101111 +
b11111111010111111111000001101111 /
b11111111010111111111000001101111 Q
b11111111010111111111000001101111 e
b11111111010111111111000001101111 p
b11111111010111111111000001101111 <
b11111111010111111111000001101111 Y
b10000 B
b10000 X
bx 2
bx L
bx d
bx 6
bx I
bx `
b110100 ?
b110100 j
b110100 n
b1000100 9
b1000100 b
b1000000 :
b1000000 k
b1000000 l
bx 8
bx G
bx J
1"
#32000
0"
#33000
b0 1
b0 U
b0 a
b11100 A
b11100 T
b11111111111111111111111111110010 6
b11111111111111111111111111110010 I
b11111111111111111111111111110010 `
b10000 ;
b10000 F
b10000 \
b10000 7
b10000 K
b10000 V
b10000 Z
b10010 D
b10010 N
b10010 h
b10 8
b10 G
b10 J
b101 E
b101 O
b101 g
b0 2
b0 L
b0 d
b1 .
b1 @
b1 H
b1 |
b1 $"
b100 4
b100 _
b100 m
0)
0v
0)"
b11 &
b11 3
b11 R
b11 f
b11 q
b11 r
b11 *"
b1 {
b1 ""
b1 &"
1'"
b0x '
b0x 5
b0x c
b0x t
xs
0(
0u
0#"
b10000 =
b10000 S
b10000 [
b10000 ^
bx C
bx M
bx i
b1100011 y
b1100011 %"
0~
b0 }
b1001000101000100001100011 !
b1001000101000100001100011 $
b1001000101000100001100011 +
b1001000101000100001100011 /
b1001000101000100001100011 Q
b1001000101000100001100011 e
b1001000101000100001100011 p
b1001000101000100001100011 <
b1001000101000100001100011 Y
b1101 B
b1101 X
b111000 ?
b111000 j
b111000 n
b111000 9
b111000 b
b110100 :
b110100 k
b110100 l
1"
#34000
0"
#35000
b1 A
b1 T
b100 6
b100 I
b100 `
b101 C
b101 M
b101 i
b0 .
b0 @
b0 H
b0 |
b0 $"
b100 2
b100 L
b100 d
b10 ;
b10 F
b10 \
b10 &
b10 3
b10 R
b10 f
b10 q
b10 r
b10 *"
b10 {
b10 ""
b10 &"
0'"
b0 '
b0 5
b0 c
b0 t
0s
bx ,
bx >
bx o
bx x
bx ("
1(
1u
b0 =
b0 S
b0 [
b0 ^
b10 7
b10 K
b10 V
b10 Z
b101 D
b101 N
b101 h
b110011 y
b110011 %"
b10100101000001010110011 !
b10100101000001010110011 $
b10100101000001010110011 +
b10100101000001010110011 /
b10100101000001010110011 Q
b10100101000001010110011 e
b10100101000001010110011 p
b10100101000001010110011 <
b10100101000001010110011 Y
b1110 B
b1110 X
b111100 ?
b111100 j
b111100 n
b111100 9
b111100 b
b111000 :
b111000 k
b111000 l
1"
#36000
0"
#37000
b1 =
b1 S
b1 [
b1 ^
b0 &
b0 3
b0 R
b0 f
b0 q
b0 r
b0 *"
1-
1z
b0 ,
b0 >
b0 o
b0 x
b0 ("
b110 C
b110 M
b110 i
bx D
bx N
bx h
b110 E
b110 O
b110 g
b10011 y
b10011 %"
0!"
b10 2
b10 L
b10 d
b0 A
b0 T
b100110000001100010011 !
b100110000001100010011 $
b100110000001100010011 +
b100110000001100010011 /
b100110000001100010011 Q
b100110000001100010011 e
b100110000001100010011 p
b100110000001100010011 <
b100110000001100010011 Y
b10 6
b10 I
b10 `
b1 ;
b1 F
b1 \
b1111 B
b1111 X
b1 8
b1 G
b1 J
bx 7
bx K
bx V
bx Z
b1000000 ?
b1000000 j
b1000000 n
b1000000 9
b1000000 b
b111100 :
b111100 k
b111100 l
1"
#38000
0"
#39000
bx 1
bx U
bx a
bx A
bx T
b11111111111111111111111111110100 4
b11111111111111111111111111110100 _
b11111111111111111111111111110100 m
bx ;
bx F
bx \
1)
1v
1)"
b100 &
b100 3
b100 R
b100 f
b100 q
b100 r
b100 *"
b0 {
b0 ""
b0 &"
b1 '
b1 5
b1 c
b1 t
1s
0-
0z
b10 ,
b10 >
b10 o
b10 x
b10 ("
1#"
b0 .
b0 @
b0 H
b0 |
b0 $"
b11111111111111111111111111110100 =
b11111111111111111111111111110100 S
b11111111111111111111111111110100 [
b11111111111111111111111111110100 ^
b0 C
b0 M
b0 i
bx E
bx O
bx g
b1101111 y
b1101111 %"
1!"
1~
b111 }
b11111111010111111111000001101111 !
b11111111010111111111000001101111 $
b11111111010111111111000001101111 +
b11111111010111111111000001101111 /
b11111111010111111111000001101111 Q
b11111111010111111111000001101111 e
b11111111010111111111000001101111 p
b11111111010111111111000001101111 <
b11111111010111111111000001101111 Y
b10000 B
b10000 X
bx 2
bx L
bx d
bx 6
bx I
bx `
b110100 ?
b110100 j
b110100 n
b1000100 9
b1000100 b
b1000000 :
b1000000 k
b1000000 l
bx 8
bx G
bx J
1"
#40000
0"
#41000
b0 1
b0 U
b0 a
b11101 A
b11101 T
b11111111111111111111111111110100 6
b11111111111111111111111111110100 I
b11111111111111111111111111110100 `
b10000 ;
b10000 F
b10000 \
b10000 7
b10000 K
b10000 V
b10000 Z
b10010 D
b10010 N
b10010 h
b100 8
b100 G
b100 J
b101 E
b101 O
b101 g
b0 2
b0 L
b0 d
b1 .
b1 @
b1 H
b1 |
b1 $"
b100 4
b100 _
b100 m
0)
0v
0)"
b11 &
b11 3
b11 R
b11 f
b11 q
b11 r
b11 *"
b1 {
b1 ""
b1 &"
1'"
b0x '
b0x 5
b0x c
b0x t
xs
0(
0u
0#"
b10000 =
b10000 S
b10000 [
b10000 ^
bx C
bx M
bx i
b1100011 y
b1100011 %"
0~
b0 }
b1001000101000100001100011 !
b1001000101000100001100011 $
b1001000101000100001100011 +
b1001000101000100001100011 /
b1001000101000100001100011 Q
b1001000101000100001100011 e
b1001000101000100001100011 p
b1001000101000100001100011 <
b1001000101000100001100011 Y
b1101 B
b1101 X
b111000 ?
b111000 j
b111000 n
b111000 9
b111000 b
b110100 :
b110100 k
b110100 l
1"
#42000
0"
#43000
b10 A
b10 T
b1000 6
b1000 I
b1000 `
b101 C
b101 M
b101 i
b0 .
b0 @
b0 H
b0 |
b0 $"
b1000 2
b1000 L
b1000 d
b100 ;
b100 F
b100 \
b10 &
b10 3
b10 R
b10 f
b10 q
b10 r
b10 *"
b10 {
b10 ""
b10 &"
0'"
b0 '
b0 5
b0 c
b0 t
0s
bx ,
bx >
bx o
bx x
bx ("
1(
1u
b0 =
b0 S
b0 [
b0 ^
b100 7
b100 K
b100 V
b100 Z
b101 D
b101 N
b101 h
b110011 y
b110011 %"
b10100101000001010110011 !
b10100101000001010110011 $
b10100101000001010110011 +
b10100101000001010110011 /
b10100101000001010110011 Q
b10100101000001010110011 e
b10100101000001010110011 p
b10100101000001010110011 <
b10100101000001010110011 Y
b1110 B
b1110 X
b111100 ?
b111100 j
b111100 n
b111100 9
b111100 b
b111000 :
b111000 k
b111000 l
1"
#44000
0"
#45000
b1 =
b1 S
b1 [
b1 ^
b0 &
b0 3
b0 R
b0 f
b0 q
b0 r
b0 *"
1-
1z
b0 ,
b0 >
b0 o
b0 x
b0 ("
b110 C
b110 M
b110 i
bx D
bx N
bx h
b110 E
b110 O
b110 g
b10011 y
b10011 %"
0!"
b11 2
b11 L
b11 d
b0 A
b0 T
b100110000001100010011 !
b100110000001100010011 $
b100110000001100010011 +
b100110000001100010011 /
b100110000001100010011 Q
b100110000001100010011 e
b100110000001100010011 p
b100110000001100010011 <
b100110000001100010011 Y
b11 6
b11 I
b11 `
b1 ;
b1 F
b1 \
b1111 B
b1111 X
b10 8
b10 G
b10 J
bx 7
bx K
bx V
bx Z
b1000000 ?
b1000000 j
b1000000 n
b1000000 9
b1000000 b
b111100 :
b111100 k
b111100 l
1"
#46000
0"
#47000
bx 1
bx U
bx a
b11111111111111111111111111110100 4
b11111111111111111111111111110100 _
b11111111111111111111111111110100 m
bx ;
bx F
bx \
1)
1v
1)"
b100 &
b100 3
b100 R
b100 f
b100 q
b100 r
b100 *"
b0 {
b0 ""
b0 &"
b1 '
b1 5
b1 c
b1 t
1s
0-
0z
b10 ,
b10 >
b10 o
b10 x
b10 ("
1#"
b0 .
b0 @
b0 H
b0 |
b0 $"
b11111111111111111111111111110100 =
b11111111111111111111111111110100 S
b11111111111111111111111111110100 [
b11111111111111111111111111110100 ^
b0 C
b0 M
b0 i
bx E
bx O
bx g
b1101111 y
b1101111 %"
1!"
1~
b111 }
b11111111010111111111000001101111 !
b11111111010111111111000001101111 $
b11111111010111111111000001101111 +
b11111111010111111111000001101111 /
b11111111010111111111000001101111 Q
b11111111010111111111000001101111 e
b11111111010111111111000001101111 p
b11111111010111111111000001101111 <
b11111111010111111111000001101111 Y
bx A
bx T
b10000 B
b10000 X
bx 2
bx L
bx d
bx 6
bx I
bx `
b110100 ?
b110100 j
b110100 n
b1000100 9
b1000100 b
b1000000 :
b1000000 k
b1000000 l
bx 8
bx G
bx J
1"
#48000
0"
#49000
b0 1
b0 U
b0 a
b11110 A
b11110 T
b11111111111111111111111111111000 6
b11111111111111111111111111111000 I
b11111111111111111111111111111000 `
b10000 ;
b10000 F
b10000 \
b10000 7
b10000 K
b10000 V
b10000 Z
b10010 D
b10010 N
b10010 h
b1000 8
b1000 G
b1000 J
b101 E
b101 O
b101 g
b0 2
b0 L
b0 d
b1 .
b1 @
b1 H
b1 |
b1 $"
b100 4
b100 _
b100 m
0)
0v
0)"
b11 &
b11 3
b11 R
b11 f
b11 q
b11 r
b11 *"
b1 {
b1 ""
b1 &"
1'"
b0x '
b0x 5
b0x c
b0x t
xs
0(
0u
0#"
b10000 =
b10000 S
b10000 [
b10000 ^
bx C
bx M
bx i
b1100011 y
b1100011 %"
0~
b0 }
b1001000101000100001100011 !
b1001000101000100001100011 $
b1001000101000100001100011 +
b1001000101000100001100011 /
b1001000101000100001100011 Q
b1001000101000100001100011 e
b1001000101000100001100011 p
b1001000101000100001100011 <
b1001000101000100001100011 Y
b1101 B
b1101 X
b111000 ?
b111000 j
b111000 n
b111000 9
b111000 b
b110100 :
b110100 k
b110100 l
1"
#50000
0"
#51000
b100 A
b100 T
b10000 6
b10000 I
b10000 `
b101 C
b101 M
b101 i
b0 .
b0 @
b0 H
b0 |
b0 $"
b10000 2
b10000 L
b10000 d
b1000 ;
b1000 F
b1000 \
b10 &
b10 3
b10 R
b10 f
b10 q
b10 r
b10 *"
b10 {
b10 ""
b10 &"
0'"
b0 '
b0 5
b0 c
b0 t
0s
bx ,
bx >
bx o
bx x
bx ("
1(
1u
b0 =
b0 S
b0 [
b0 ^
b1000 7
b1000 K
b1000 V
b1000 Z
b101 D
b101 N
b101 h
b110011 y
b110011 %"
b10100101000001010110011 !
b10100101000001010110011 $
b10100101000001010110011 +
b10100101000001010110011 /
b10100101000001010110011 Q
b10100101000001010110011 e
b10100101000001010110011 p
b10100101000001010110011 <
b10100101000001010110011 Y
b1110 B
b1110 X
b111100 ?
b111100 j
b111100 n
b111100 9
b111100 b
b111000 :
b111000 k
b111000 l
1"
#52000
0"
